%YAML 1.1
%TAG !u! tag:unity3d.com,2011:
--- !u!1045 &1
EditorBuildSettings:
  m_ObjectHideFlags: 0
  serializedVersion: 2
  m_Scenes:
  - enabled: 1
    path: Assets/Scenes/Start.unity
    guid: 908a32087baad7b4590b437800476442
  - enabled: 1
    path: Assets/Scenes/Main.unity
    guid: b099d71f0a241b94b841cc2ce5a6fd86
  m_configObjects: {}
