[
    {
        "name": "Удон",
        "price": "150"
    },
    {
        "name": "Соба",
        "price": "150"
    },
    {
        "name": "Фунчоза",
        "price": "150"
    },
    {
        "name": "Рамен",
        "price": "150"
    },
    {
        "name": "Говядина",
        "price": "70"
    },
    {
        "name": "Курица",
        "price": "50"
    },
    {
        "name": "Лосось",
        "price": "90"
    },
    {
        "name": "Морской-коктейль",
        "price": "90"
    },
    {
        "name": "Свинина",
        "price": "50"
    },
    {
        "name": "Кунжут",
        "price": "5"
    },
    {
        "name": "Моцарелла",
        "price": "25"
    },
    {
        "name": "Овощное ассорти",
        "price": "25"
    },
    {
        "name": "Огурцы",
        "price": "25"
    },
    {
        "name": "Пармезан",
        "price": "25"
    },
    {
        "name": "Фасоль",
        "price": "25"
    },
    {
        "name": "Цукини",
        "price": "25"
    },
    {
        "name": "Чери",
        "price": "25"
    },
    {
        "name": "Шампиньоны",
        "price": "25"
    },
    {
        "name": "Яйцо",
        "price": "10"
    },
    {
        "name": "Острый",
        "price": "25"
    },
    {
        "name": "Сливочно-чесночный",
        "price": "25"
    },
    {
        "name": "Тайский",
        "price": "25"
    },
    {
        "name": "Терияки",
        "price": "25"
    },
    {
        "name": "Фирменный",
        "price": "25"
    }
]
